%YAML 1.1
%TAG !u! tag:unity3d.com,2011:
--- !u!1045 &1
EditorBuildSettings:
  m_ObjectHideFlags: 0
  serializedVersion: 2
  m_Scenes:
  - enabled: 1
    path: Assets/Scenes/Intro.unity
    guid: 81ae485c47e2ecd478f866f75872f944
  - enabled: 1
    path: Assets/Scenes/Game.unity
    guid: b6836dc11825b0140bffdbb94325c444
  m_configObjects: {}
